Introducción al análisis de datos con R
…
El paquete **ggplot** viene integrado dentro del paquete **tidyverse**

```r
library(tidyverse) #contiene ggplot
library(gapminder) #contiene la base de datos gapminder
```

Cargamos la base de datos de gapminder al entorno

```r
gapminder
```

```
## # A tibble: 1,704 × 6
##    country     continent  year lifeExp      pop gdpPercap
##    <fct>       <fct>     <int>   <dbl>    <int>     <dbl>
##  1 Afghanistan Asia       1952    28.8  8425333      779.
##  2 Afghanistan Asia       1957    30.3  9240934      821.
##  3 Afghanistan Asia       1962    32.0 10267083      853.
##  4 Afghanistan Asia       1967    34.0 11537966      836.
##  5 Afghanistan Asia       1972    36.1 13079460      740.
##  6 Afghanistan Asia       1977    38.4 14880372      786.
##  7 Afghanistan Asia       1982    39.9 12881816      978.
##  8 Afghanistan Asia       1987    40.8 13867957      852.
##  9 Afghanistan Asia       1992    41.7 16317921      649.
## 10 Afghanistan Asia       1997    41.8 22227415      635.
## # ℹ 1,694 more rows
```
…
Para empezar con algo sencillo **filtraremos solo los datos de 1997**

```r
gapminder_1997 <- gapminder %>% filter(year == 1997)
gapminder_1997
```

```
## # A tibble: 142 × 6
##    country     continent  year lifeExp       pop gdpPercap
##    <fct>       <fct>     <int>   <dbl>     <int>     <dbl>
##  1 Afghanistan Asia       1997    41.8  22227415      635.
##  2 Albania     Europe     1997    73.0   3428038     3193.
##  3 Algeria     Africa     1997    69.2  29072015     4797.
##  4 Angola      Africa     1997    41.0   9875024     2277.
##  5 Argentina   Americas   1997    73.3  36203463    10967.
##  6 Australia   Oceania    1997    78.8  18565243    26998.
##  7 Austria     Europe     1997    77.5   8069876    29096.
##  8 Bahrain     Asia       1997    73.9    598561    20292.
##  9 Bangladesh  Asia       1997    59.4 123315288      973.
## 10 Belgium     Europe     1997    77.5  10199787    27561.
## # ℹ 132 more rows
```
…
