Introducción al análisis de datos con R
…
---
# .orange[FILTRAR] registros: filter()

Una de las **operaciones más comunes** es **.bg-purple_light[filtrar registros]** en base a alguna **.bg-purple_light[condición lógica]**: con `filter()` se seleccionarán solo individuos que cumplan ciertas condiciones.

```r
ecv19 %>% 
  filter(sexo == "Mujer")
```

```
## # A tibble: 20,484 × 13
##    sexo   edad nacionalidad ccaa  tipo_hogar    regimen_vivienda nivel_educativo
##    <chr> <dbl> <chr>        <chr> <chr>         <chr>            <chr>          
##  1 Mujer    68 Espana       ES21  2 adultos si… En propiedad     300            
##  2 Mujer    72 Espana       ES21  2 adultos si… En propiedad     200            
##  3 Mujer    54 Espana       ES21  Biparental c… En propiedad     500            
##  4 Mujer    26 Espana       ES21  Biparental c… En propiedad     500            
##  5 Mujer    23 Espana       ES21  Biparental c… En propiedad     344            
##  6 Mujer    61 Espana       ES21  Monomarental… En alquiler      500            
##  7 Mujer    78 Espana       ES21  2 adultos si… En propiedad     100            
##  8 Mujer    48 Espana       ES21  2 adultos si… En propiedad     500            
##  9 Mujer    52 Espana       ES21  Biparental c… En propiedad     500            
## 10 Mujer    14 <NA>         ES21  Biparental c… En propiedad     <NA>           
## # ℹ 20,474 more rows
## # ℹ 6 more variables: unidades_consumo <dbl>, renta_hogar <dbl>,
## #   ingresos_anuales <dbl>, riesgo_pobreza <dbl>,
## #   situacion_economica_infancia <chr>, pesos <dbl>
```
…
* `==, !=` igual/distinto que
* `>, <` mayor/menor que
* `>=, <=` mayor/menor o igual que
* `%in%` los valores pertenecen a un listado
* `!is.na()` los valores no son ausentes (mejor usar `drop_na()`)
* `between(variable, val1, val2)`: si los valores (normalmente continuos) están dentro de un rango.

```r
ecv19 %>%
  filter(renta_hogar > 10000)
```

```
## # A tibble: 36,470 × 13
##    sexo    edad nacionalidad   ccaa  tipo_hogar regimen_vivienda nivel_educativo
##    <chr>  <dbl> <chr>          <chr> <chr>      <chr>            <chr>          
##  1 Hombre    70 Espana         ES21  2 adultos… En propiedad     300            
##  2 Mujer     68 Espana         ES21  2 adultos… En propiedad     300            
##  3 Mujer     72 Espana         ES21  2 adultos… En propiedad     200            
##  4 Hombre    60 Espana         ES21  2 adultos… En propiedad     300            
##  5 Mujer     61 Espana         ES21  Monomaren… En alquiler      500            
##  6 Hombre    22 Extranjero (r… ES21  Monomaren… En alquiler      344            
##  7 Mujer     78 Espana         ES21  2 adultos… En propiedad     100            
##  8 Mujer     48 Espana         ES21  2 adultos… En propiedad     500            
##  9 Hombre    50 Espana         ES21  Biparenta… En propiedad     300            
## 10 Mujer     52 Espana         ES21  Biparenta… En propiedad     500            
## # ℹ 36,460 more rows
## # ℹ 6 more variables: unidades_consumo <dbl>, renta_hogar <dbl>,
## #   ingresos_anuales <dbl>, riesgo_pobreza <dbl>,
## #   situacion_economica_infancia <chr>, pesos <dbl>
```

---
# .orange[FILTRAR] registros: filter()

En el caso de utilizar `%in%` dentro de `filter()`, se busca que los valores de una columna estén presentes en un conjunto de valores especificados.

```r
ecv19 %>%
  filter(edad %in% c(25:45)) 
```

```
## # A tibble: 9,464 × 13
##    sexo    edad nacionalidad   ccaa  tipo_hogar regimen_vivienda nivel_educativo
##    <chr>  <dbl> <chr>          <chr> <chr>      <chr>            <chr>          
##  1 Mujer     26 Espana         ES21  Biparenta… En propiedad     500            
##  2 Hombre    36 Extranjero (r… ES22  Biparenta… En propiedad     500            
##  3 Mujer     30 Espana         ES22  Biparenta… En propiedad     500            
##  4 Mujer     37 Espana         ES21  Uniperson… En propiedad     500            
##  5 Mujer     40 Espana         ES21  2 adultos… En propiedad     300            
##  6 Hombre    39 Espana         ES21  2 adultos… En propiedad     300            
##  7 Hombre    43 Espana         ES21  2 adultos… En propiedad     500            
##  8 Hombre    40 Espana         ES21  Uniperson… En propiedad     500            
##  9 Mujer     41 Espana         ES21  Biparenta… En propiedad     200            
## 10 Hombre    42 Espana         ES21  Biparenta… En propiedad     000            
## # ℹ 9,454 more rows
## # ℹ 6 more variables: unidades_consumo <dbl>, renta_hogar <dbl>,
## #   ingresos_anuales <dbl>, riesgo_pobreza <dbl>,
## #   situacion_economica_infancia <chr>, pesos <dbl>
```

---
# .orange[FILTRAR] registros: filter()

El operador **!** se coloca delante de una condición lógica para negarla. Esto significa que se seleccionarán las filas que no cumplan con la condición negada.

```r
ecv19 %>%
  filter(regimen_vivienda != "En propiedad")
```

```
## # A tibble: 8,644 × 13
##    sexo    edad nacionalidad   ccaa  tipo_hogar regimen_vivienda nivel_educativo
##    <chr>  <dbl> <chr>          <chr> <chr>      <chr>            <chr>          
##  1 Mujer     61 Espana         ES21  Monomaren… En alquiler      500            
##  2 Hombre    22 Extranjero (r… ES21  Monomaren… En alquiler      344            
##  3 Mujer     43 Espana         ES21  Monomaren… En alquiler      500            
##  4 Mujer     11 <NA>           ES21  Monomaren… En alquiler      <NA>           
##  5 Hombre    56 Extranjero (r… ES21  Otros hog… En alquiler      500            
##  6 Mujer     51 Extranjero (r… ES21  Otros hog… En alquiler      300            
##  7 Hombre    30 Extranjero (r… ES21  Otros hog… En alquiler      344            
##  8 Hombre    66 Espana         ES21  Uniperson… En alquiler      100            
##  9 Hombre    38 Espana         ES42  Uniperson… En alquiler      500            
## 10 Hombre    45 Extranjero (r… ES42  2 adultos… En alquiler      100            
## # ℹ 8,634 more rows
## # ℹ 6 more variables: unidades_consumo <dbl>, renta_hogar <dbl>,
## #   ingresos_anuales <dbl>, riesgo_pobreza <dbl>,
## #   situacion_economica_infancia <chr>, pesos <dbl>
```
---
# .orange[FILTRAR] registros: filter()

Cuando es una variable continua el interés podría estar en comprobar si la variable toma valores **.bg-purple_light[dentro de un intervalo continuo]**.

```r
ecv19 %>%
  filter(between(edad, 25, 35))
```

```
## # A tibble: 3,897 × 13
##    sexo    edad nacionalidad   ccaa  tipo_hogar regimen_vivienda nivel_educativo
##    <chr>  <dbl> <chr>          <chr> <chr>      <chr>            <chr>          
##  1 Mujer     26 Espana         ES21  Biparenta… En propiedad     500            
##  2 Mujer     30 Espana         ES22  Biparenta… En propiedad     500            
##  3 Hombre    35 Espana         ES21  Biparenta… En propiedad     200            
##  4 Mujer     33 Espana         ES21  Biparenta… En propiedad     500            
##  5 Mujer     26 Espana         ES21  Otros hog… En propiedad     500            
##  6 Mujer     30 Espana         ES21  Otros hog… En propiedad     354            
##  7 Hombre    35 Espana         ES21  2 adultos… En propiedad     344            
##  8 Hombre    30 Extranjero (r… ES21  Otros hog… En alquiler      344            
##  9 Mujer     31 Espana         ES42  Otros hog… En propiedad     500            
## 10 Mujer     31 Espana         ES42  Otros hog… En propiedad     344            
## # ℹ 3,887 more rows
## # ℹ 6 more variables: unidades_consumo <dbl>, renta_hogar <dbl>,
## #   ingresos_anuales <dbl>, riesgo_pobreza <dbl>,
## #   situacion_economica_infancia <chr>, pesos <dbl>
```
---
# .orange[FILTRAR] registros: filter()

Operadores lógicos: `&` y `|` (o)

```r
ecv19 %>%
  filter(edad > 30 | edad < 50)
```

```
## # A tibble: 39,852 × 13
##    sexo    edad nacionalidad   ccaa  tipo_hogar regimen_vivienda nivel_educativo
##    <chr>  <dbl> <chr>          <chr> <chr>      <chr>            <chr>          
##  1 Hombre    70 Espana         ES21  2 adultos… En propiedad     300            
##  2 Mujer     68 Espana         ES21  2 adultos… En propiedad     300            
##  3 Mujer     72 Espana         ES21  2 adultos… En propiedad     200            
##  4 Hombre    60 Espana         ES21  2 adultos… En propiedad     300            
##  5 Mujer     54 Espana         ES21  Biparenta… En propiedad     500            
##  6 Mujer     26 Espana         ES21  Biparenta… En propiedad     500            
##  7 Mujer     23 Espana         ES21  Biparenta… En propiedad     344            
##  8 Mujer     61 Espana         ES21  Monomaren… En alquiler      500            
##  9 Hombre    22 Extranjero (r… ES21  Monomaren… En alquiler      344            
## 10 Mujer     78 Espana         ES21  2 adultos… En propiedad     100            
## # ℹ 39,842 more rows
## # ℹ 6 more variables: unidades_consumo <dbl>, renta_hogar <dbl>,
## #   ingresos_anuales <dbl>, riesgo_pobreza <dbl>,
## #   situacion_economica_infancia <chr>, pesos <dbl>
```

---
# .orange[FILTRAR] registros: filter()

Además, podemos crear un nuevo data frame a partir de las condiciones que le facilitemos a `filter()`. Por ejemplo:

```r
filtered1 <- ecv19 %>% 
  filter((sexo == "Hombre" & edad %in% c(30:50)) |
         (sexo == "Mujer" & edad %in% c(55:65)))
filtered1
```

```
## # A tibble: 8,710 × 13
##    sexo    edad nacionalidad   ccaa  tipo_hogar regimen_vivienda nivel_educativo
##    <chr>  <dbl> <chr>          <chr> <chr>      <chr>            <chr>          
##  1 Mujer     61 Espana         ES21  Monomaren… En alquiler      500            
##  2 Hombre    50 Espana         ES21  Biparenta… En propiedad     300            
##  3 Hombre    50 Espana         ES21  Otros hog… En propiedad     500            
##  4 Hombre    36 Extranjero (r… ES22  Biparenta… En propiedad     500            
##  5 Hombre    48 Espana         ES21  Biparenta… En propiedad     200            
##  6 Hombre    39 Espana         ES21  2 adultos… En propiedad     300            
##  7 Hombre    43 Espana         ES21  2 adultos… En propiedad     500            
##  8 Hombre    40 Espana         ES21  Uniperson… En propiedad     500            
##  9 Hombre    42 Espana         ES21  Biparenta… En propiedad     000            
## 10 Hombre    35 Espana         ES21  Biparenta… En propiedad     200            
## # ℹ 8,700 more rows
## # ℹ 6 more variables: unidades_consumo <dbl>, renta_hogar <dbl>,
## #   ingresos_anuales <dbl>, riesgo_pobreza <dbl>,
## #   situacion_economica_infancia <chr>, pesos <dbl>
```
…
Podemos también **.bg-purple_light[filtrar los registros ausentes]** en alguna de sus variables con `drop_na()`. Si no especificamos, elimina todos los registros que tenga alguno de sus campos ausente.

```r
ecv19 %>% drop_na()
```

Podemos indicarle que nos elimine filas con datos ausentes fijándonos solo en **.bg-purple_light[alguna variable particular]**.

```r
ecv19 %>% drop_na(sexo, edad, ingresos_anuales)
```

```
## # A tibble: 33,376 × 13
##    sexo    edad nacionalidad   ccaa  tipo_hogar regimen_vivienda nivel_educativo
##    <chr>  <dbl> <chr>          <chr> <chr>      <chr>            <chr>          
##  1 Hombre    70 Espana         ES21  2 adultos… En propiedad     300            
##  2 Mujer     68 Espana         ES21  2 adultos… En propiedad     300            
##  3 Mujer     72 Espana         ES21  2 adultos… En propiedad     200            
##  4 Hombre    60 Espana         ES21  2 adultos… En propiedad     300            
##  5 Mujer     54 Espana         ES21  Biparenta… En propiedad     500            
##  6 Mujer     26 Espana         ES21  Biparenta… En propiedad     500            
##  7 Mujer     23 Espana         ES21  Biparenta… En propiedad     344            
##  8 Mujer     61 Espana         ES21  Monomaren… En alquiler      500            
##  9 Hombre    22 Extranjero (r… ES21  Monomaren… En alquiler      344            
## 10 Mujer     78 Espana         ES21  2 adultos… En propiedad     100            
## # ℹ 33,366 more rows
## # ℹ 6 more variables: unidades_consumo <dbl>, renta_hogar <dbl>,
## #   ingresos_anuales <dbl>, riesgo_pobreza <dbl>,
## #   situacion_economica_infancia <chr>, pesos <dbl>
```

---
# .orange[FILTRAR] datos ausentes

`!is.na()` también se puede utilizar para filtrar un dataframe excluyendo los valores ausentes (NA) en una columna específica.

```r
ecv19 %>%
  filter(!is.na(nivel_educativo))
```

```
## # A tibble: 33,187 × 13
##    sexo    edad nacionalidad   ccaa  tipo_hogar regimen_vivienda nivel_educativo
##    <chr>  <dbl> <chr>          <chr> <chr>      <chr>            <chr>          
##  1 Hombre    70 Espana         ES21  2 adultos… En propiedad     300            
##  2 Mujer     68 Espana         ES21  2 adultos… En propiedad     300            
##  3 Mujer     72 Espana         ES21  2 adultos… En propiedad     200            
##  4 Hombre    60 Espana         ES21  2 adultos… En propiedad     300            
##  5 Mujer     54 Espana         ES21  Biparenta… En propiedad     500            
##  6 Mujer     26 Espana         ES21  Biparenta… En propiedad     500            
##  7 Mujer     23 Espana         ES21  Biparenta… En propiedad     344            
##  8 Mujer     61 Espana         ES21  Monomaren… En alquiler      500            
##  9 Hombre    22 Extranjero (r… ES21  Monomaren… En alquiler      344            
## 10 Mujer     78 Espana         ES21  2 adultos… En propiedad     100            
## # ℹ 33,177 more rows
## # ℹ 6 more variables: unidades_consumo <dbl>, renta_hogar <dbl>,
## #   ingresos_anuales <dbl>, riesgo_pobreza <dbl>,
## #   situacion_economica_infancia <chr>, pesos <dbl>
```
…
---

# .orange[SELECCIONAR] columnas:  select()

Utilizamos `select()` para guardar sólo aquellas variables que nos interesan.

Podemos seleccionar por nombre de columna:

```r
ecv19 %>%
  select(sexo, renta_hogar)
```

```
## # A tibble: 39,852 × 2
##    sexo   renta_hogar
##    <chr>        <dbl>
##  1 Hombre      31627.
##  2 Mujer       31627.
##  3 Mujer       42250 
##  4 Hombre      42250 
##  5 Mujer        7043 
##  6 Mujer        7043 
##  7 Mujer        7043 
##  8 Mujer       12303.
##  9 Hombre      12303.
## 10 Mujer       43889.
## # ℹ 39,842 more rows
```
---
# .orange[SELECCIONAR] columnas:  select()

Como sucedía al filtrar, la función `select()` es bastante versatil y nos permite:

* Seleccionar **.bg-purple_light[varias variables a la vez]** (concatenando sus nombres).

```r
ecv19 %>% 
  select(sexo:tipo_hogar)
```

```
## # A tibble: 39,852 × 5
##    sexo    edad nacionalidad             ccaa  tipo_hogar               
##    <chr>  <dbl> <chr>                    <chr> <chr>                    
##  1 Hombre    70 Espana                   ES21  2 adultos sin niños      
##  2 Mujer     68 Espana                   ES21  2 adultos sin niños      
##  3 Mujer     72 Espana                   ES21  2 adultos sin niños      
##  4 Hombre    60 Espana                   ES21  2 adultos sin niños      
##  5 Mujer     54 Espana                   ES21  Biparental con niños/as  
##  6 Mujer     26 Espana                   ES21  Biparental con niños/as  
##  7 Mujer     23 Espana                   ES21  Biparental con niños/as  
##  8 Mujer     61 Espana                   ES21  Monomarental con niños/as
##  9 Hombre    22 Extranjero (resto mundo) ES21  Monomarental con niños/as
## 10 Mujer     78 Espana                   ES21  2 adultos sin niños      
## # ℹ 39,842 more rows
```

---
# .orange[SELECCIONAR] columnas:  select()

Por posición:

```r
ecv19 %>%
  select(1:3)
```

```
## # A tibble: 39,852 × 3
##    sexo    edad nacionalidad            
##    <chr>  <dbl> <chr>                   
##  1 Hombre    70 Espana                  
##  2 Mujer     68 Espana                  
##  3 Mujer     72 Espana                  
##  4 Hombre    60 Espana                  
##  5 Mujer     54 Espana                  
##  6 Mujer     26 Espana                  
##  7 Mujer     23 Espana                  
##  8 Mujer     61 Espana                  
##  9 Hombre    22 Extranjero (resto mundo)
## 10 Mujer     78 Espana                  
## # ℹ 39,842 more rows
```

---
# .orange[SELECCIONAR] columnas:  select()

Todas las columnas menos una:

```r
ecv19 %>%
  select(-ccaa)
```

```
## # A tibble: 39,852 × 12
##    sexo    edad nacionalidad         tipo_hogar regimen_vivienda nivel_educativo
##    <chr>  <dbl> <chr>                <chr>      <chr>            <chr>          
##  1 Hombre    70 Espana               2 adultos… En propiedad     300            
##  2 Mujer     68 Espana               2 adultos… En propiedad     300            
##  3 Mujer     72 Espana               2 adultos… En propiedad     200            
##  4 Hombre    60 Espana               2 adultos… En propiedad     300            
##  5 Mujer     54 Espana               Biparenta… En propiedad     500            
##  6 Mujer     26 Espana               Biparenta… En propiedad     500            
##  7 Mujer     23 Espana               Biparenta… En propiedad     344            
##  8 Mujer     61 Espana               Monomaren… En alquiler      500            
##  9 Hombre    22 Extranjero (resto m… Monomaren… En alquiler      344            
## 10 Mujer     78 Espana               2 adultos… En propiedad     100            
## # ℹ 39,842 more rows
## # ℹ 6 more variables: unidades_consumo <dbl>, renta_hogar <dbl>,
## #   ingresos_anuales <dbl>, riesgo_pobreza <dbl>,
## #   situacion_economica_infancia <chr>, pesos <dbl>
```

---
# .orange[SELECCIONAR] columnas:  select()

E incluso quitar varias:

```r
ecv19 %>%
  select(-c(4:8))
```

```
## # A tibble: 39,852 × 8
##    sexo    edad nacionalidad         renta_hogar ingresos_anuales riesgo_pobreza
##    <chr>  <dbl> <chr>                      <dbl>            <dbl>          <dbl>
##  1 Hombre    70 Espana                    31627.                0              0
##  2 Mujer     68 Espana                    31627.                0              0
##  3 Mujer     72 Espana                    42250                 0              0
##  4 Hombre    60 Espana                    42250             41600              0
##  5 Mujer     54 Espana                     7043                 0              1
##  6 Mujer     26 Espana                     7043              4680              1
##  7 Mujer     23 Espana                     7043              2340              1
##  8 Mujer     61 Espana                    12303.                0              1
##  9 Hombre    22 Extranjero (resto m…      12303.             4680              1
## 10 Mujer     78 Espana                    43889.                0              0
## # ℹ 39,842 more rows
## # ℹ 2 more variables: situacion_economica_infancia <chr>, pesos <dbl>
```
…
